…
cancer %>% group_by(state) %>% summarize(n_distinct(county), 
    mean(rate.male, na.rm = T), mean(rate.female, na.rm = T), 
    mean(LCL95.male, na.rm = T), mean(LCL95.female, na.rm = T), 
    sd(rate.male, na.rm = T), sd(rate.female, na.rm = T), sd(LCL95.male, 
        na.rm = T), sd(LCL95.female, na.rm = T), max(rate.male), 
    max(rate.female), max(LCL95.male), max(LCL95.female), min(rate.male), 
    min(rate.female), min(LCL95.male), min(LCL95.female))

## # A tibble: 49 x 18
##    state `n_distinct(cou… `mean(rate.male… `mean(rate.fema… `mean(LCL95.mal…
##    <fct>            <int>            <dbl>            <dbl>            <dbl>
##  1 Alab…               67             288.             162.             249.
##  2 Alas…               20             262.             183.             178.
##  3 Ariz…               15             207.             144.             184.
##  4 Arka…               75             288.             170.             242.
##  5 Cali…               57             222.             161.             202.
##  6 Colo…               56             204.             151.             154.
##  7 Conn…                8             234              162              221.
##  8 Dela…                4             270.             178.             256.
##  9 Flor…               67             259.             162.             231.
## 10 Geor…              157             287.             166.             233.
## # … with 39 more rows, and 13 more variables: `mean(LCL95.female, na.rm =
## #   T)` <dbl>, `sd(rate.male, na.rm = T)` <dbl>, `sd(rate.female, na.rm =
## #   T)` <dbl>, `sd(LCL95.male, na.rm = T)` <dbl>, `sd(LCL95.female, na.rm =
## #   T)` <dbl>, `max(rate.male)` <dbl>, `max(rate.female)` <dbl>,
## #   `max(LCL95.male)` <dbl>, `max(LCL95.female)` <dbl>, `min(rate.male)` <dbl>,
## #   `min(rate.female)` <dbl>, `min(LCL95.male)` <dbl>,
## #   `min(LCL95.female)` <dbl>

cancer %>% group_by(county) %>% summarize(n_distinct(state), 
    mean(rate.male, na.rm = T), mean(rate.female, na.rm = T), 
    mean(LCL95.male, na.rm = T), mean(LCL95.female, na.rm = T), 
    sd(rate.male, na.rm = T), sd(rate.female, na.rm = T), sd(LCL95.male, 
        na.rm = T), sd(LCL95.female, na.rm = T), max(rate.male), 
    max(rate.female), max(LCL95.male), max(LCL95.female), min(rate.male), 
    min(rate.female), min(LCL95.male), min(LCL95.female))

## # A tibble: 1,815 x 18
##    county `n_distinct(sta… `mean(rate.male… `mean(rate.fema… `mean(LCL95.mal…
##    <I<ch>            <int>            <dbl>            <dbl>            <dbl>
##  1 Abbev…                1             246.             162.             208.
##  2 Acadi…                1             308.             216.             276.
##  3 Accom…                1             303.             198.             269.
##  4 Ada C…                1             225.             158.             211.
##  5 Adair…                4             262.             167.             214.
##  6 Adams…               12             244.             163.             200.
##  7 Addis…                1             232.             157.             198.
##  8 Aiken…                1             292.             168.             273.
##  9 Aitki…                1             207.             165.             171.
## 10 Alach…                1             262.             166.             246.
## # … with 1,805 more rows, and 13 more variables: `mean(LCL95.female, na.rm =
## #   T)` <dbl>, `sd(rate.male, na.rm = T)` <dbl>, `sd(rate.female, na.rm =
## #   T)` <dbl>, `sd(LCL95.male, na.rm = T)` <dbl>, `sd(LCL95.female, na.rm =
## #   T)` <dbl>, `max(rate.male)` <dbl>, `max(rate.female)` <dbl>,
## #   `max(LCL95.male)` <dbl>, `max(LCL95.female)` <dbl>, `min(rate.male)` <dbl>,
## #   `min(rate.female)` <dbl>, `min(LCL95.male)` <dbl>,
## #   `min(LCL95.female)` <dbl>

cancer %>% group_by(state, county) %>% summarize(mean(rate.male, 
    na.rm = T), mean(rate.female, na.rm = T), mean(LCL95.male, 
    na.rm = T), mean(LCL95.female, na.rm = T), sd(rate.male, 
    na.rm = T), sd(rate.female, na.rm = T), sd(LCL95.male, na.rm = T), 
    sd(LCL95.female, na.rm = T), max(rate.male), max(rate.female), 
    max(LCL95.male), max(LCL95.female), min(rate.male), min(rate.female), 
    min(LCL95.male), min(LCL95.female))

## # A tibble: 3,041 x 18
## # Groups:   state [49]
##    state county `mean(rate.male… `mean(rate.fema… `mean(LCL95.mal…
##    <fct> <I<ch>            <dbl>            <dbl>            <dbl>
##  1 Alab… Autau…             283.             174.             243.
##  2 Alab… Baldw…             239.             162              224.
##  3 Alab… Barbo…             336.             185.             289.
##  4 Alab… Bibb …             300.             168.             247.
##  5 Alab… Bloun…             260.             172.             231.
##  6 Alab… Bullo…             346.             140.             274.
##  7 Alab… Butle…             272.             162.             229.
##  8 Alab… Calho…             292.             176.             270 
##  9 Alab… Chamb…             310.             165.             273.
## 10 Alab… Chero…             286              141.             245.
## # … with 3,031 more rows, and 13 more variables: `mean(LCL95.female, na.rm =
## #   T)` <dbl>, `sd(rate.male, na.rm = T)` <dbl>, `sd(rate.female, na.rm =
## #   T)` <dbl>, `sd(LCL95.male, na.rm = T)` <dbl>, `sd(LCL95.female, na.rm =
## #   T)` <dbl>, `max(rate.male)` <dbl>, `max(rate.female)` <dbl>,
## #   `max(LCL95.male)` <dbl>, `max(LCL95.female)` <dbl>, `min(rate.male)` <dbl>,
## #   `min(rate.female)` <dbl>, `min(LCL95.male)` <dbl>,
## #   `min(LCL95.female)` <dbl>
…
